#ARTICLE: Chen, X., & Zhang, X. (2019). A predicted-Newton’s method for solving the
#interface positioning equation in the MoF method on general polyhedrons.
#Journal of Computational Physics, 384, 60–76.
#https://doi.org/10.1016/j.jcp.2018.12.038
#DIAGRAM: Figure 13a
ALPHA_STAR,NEWTON_WITHOUT_PREDICTION
-12.9826,20.6556
-12.877,20.6925
-12.7584,20.7385
-12.6832,20.7386
-12.5935,20.7433
-12.3809,20.7987
-12.284,20.8125
-12.1755,20.7897
-11.8514,20.8221
-11.7458,20.8222
-11.6388,20.8223
-11.5274,20.8178
-11.4565,20.8041
-11.3524,20.7444
-11.2193,20.74
-11.0573,20.7447
-10.9112,20.6851
-10.755,20.5933
-10.5814,20.4739
-10.3774,20.3913
-10.2356,20.3133
-10.0606,20.2215
-9.8783,19.978
-9.7771,19.8264
-9.6281,19.5737
-9.5341,19.4221
-9.4126,19.2613
-9.3041,19.0959
-9.1941,18.9029
-9.0683,18.7191
-8.9193,18.517
-8.8166,18.324
-8.6661,18.0943
-8.5359,17.8967
-8.4202,17.6945
-8.3276,17.5751
-8.2119,17.3637
-8.0412,17.1018
-7.9168,16.9227
-7.7953,16.7389
-7.6969,16.5045
-7.5783,16.3391
-7.4843,16.1921
-7.4004,16.0129
-7.2312,15.7372
-7.1111,15.535
-7.0359,15.411
-6.8753,15.1583
-6.7798,14.9653
-6.667,14.7861
-6.5744,14.6115
-6.4674,14.4185
-6.3762,14.2577
-6.2764,14.0922
-6.1462,13.8809
-6.0276,13.6741
-5.8974,13.4582
-5.7745,13.233
-5.6428,13.0125
-5.5199,12.7965
-5.4244,12.6173
-5.3506,12.484
-5.2176,12.2865
-5.0772,12.0384
-4.9644,11.8408
-4.8603,11.6386
-4.7373,11.3905
-4.6259,11.1791
-4.555,11.0458
-4.4639,10.8896
-4.4046,10.7563
-4.3265,10.6277
-4.2021,10.4393
-4.1182,10.2463
-4.0386,10.1039
-3.9576,9.9844
-3.852,9.8374
-3.7652,9.6996
-3.6871,9.6169
-3.6264,9.479
-3.5251,9.3596
-3.4455,9.2585
-3.3587,9.1437
-3.2748,9.0012
-3.2011,8.8864
-3.1273,8.8037
-3.0275,8.6704
